{
  "$schema": "https://docs.renovatebot.com/renovate-schema.json",
  "extends": [
    "config:base",
    ":prConcurrentLimitNone"
  ],
  "lockFileMaintenance": true,
  "packageRules": [
    {
      "matchDatasources": ["docker"],
      "matchPackageNames": ["python"],
      "versioning": "regex:^(?<major>\\d+)\\.(?<minor>\\d+)\\.(?<patch>\\d+)(?<prerelease>[^.-]+)?(-(?<compatibility>.*))?$"
    },
    {
      "matchDatasources": ["docker"],
      "matchPackageNames": [
        "registry.gitlab.com/rconan/docker-and-compose",
        "registry.gitlab.com/rconan/docker-eslint",
        "registry.gitlab.com/rconan/docker-flake8",
        "registry.gitlab.com/rconan/docker-graphviz"
      ],
      "versioning": "regex:^(?<major>\\d+)(?:\\.(?<minor>\\d+))?(?:\\.(?<patch>\\d+))?-(?<build>\\d+)$"
    },
    {
      "updateTypes": ["patch", "pin", "build", "digest", "lockFileMaintenance"],
      "automerge": true,
      "automergeType": "branch"
    },
    {
      "matchPackageNames": [ "asgiref", "channels", "daphne" ],
      "groupName": "channels"
    },
    {
      "matchPackagePrefixes": [ "d3-" ],
      "groupName": "d3"
    },
    {
      "matchPackageNames": [ "django-webpack-loader", "webpack-bundle-tracker" ],
      "groupName": "django-webpack"
    },
    {
      "matchPackageNames": [ "vue", "vue-loader" ],
      "groupName": "vue"
    },
    {
      "matchPackagePrefixes": [ "pytest" ],
      "groupName": "pytest"
    },
    {
      "matchPackagePrefixes": [ "registry.gitlab.com/hunter2.app/hunter2" ],
      "enabled": false
    }
  ],
  "pinDigests": true,
  "rangeStrategy": "pin",
  "regexManagers": [
    {
      "fileMatch": ["^images/app/Dockerfile$"],
      "matchStrings": ["^ARG poetry_installer_version=(?<currentValue>[0-9a-f]+)$"],
      "currentValueTemplate": "master",
      "depNameTemplate": "install.python-poetry.org",
      "packageNameTemplate": "https://github.com/python-poetry/install.python-poetry.org",
      "datasourceTemplate": "git-refs"
    },
    {
      "fileMatch": ["^images/app/Dockerfile$"],
      "matchStrings": ["^ARG poetry_version=(?<currentValue>[0-9\\.]+)$"],
      "depNameTemplate": "poetry",
      "datasourceTemplate": "python"
    },
    {
      "fileMatch": ["^images/web/Dockerfile$"],
      "matchStrings": ["^ARG nginx_lua_prometheus_version=(?<currentValue>[0-9\\.]+)$"],
      "depNameTemplate": "knyar/nginx-lua-prometheus",
      "datasourceTemplate": "github-releases"
    }
  ],
  "unpublishSafe": true
}
